README.knit
…
Installation

You can install it from GitHub with:

# install.packages("devtools")
devtools::install_github("enricescorsa/womeninventoRs")

Example

The womeninventoR package allows you to load the womeninventorpatents data set and analyse it.

library(womeninventoR)

womeninventorpatents
#> # A tibble: 384,852 x 10
#>    id       country date       title  abstract ipc_maingroup assignees inventors
#>    <chr>    <chr>   <date>     <chr>  <chr>    <chr>         <chr>     <chr>    
#>  1 10000001 US      2018-06-19 Injec~ The inj~ B29C/45;G05B~ LS MTRON~ Sun-Woo ~
#>  2 10000002 US      2018-06-19 Metho~ The pre~ B32B/7;B29C/~ KOLON IN~ Yun Jo K~
#>  3 10000010 US      2018-06-19 3-D e~ 3-D pri~ B29C/64;B29C~ XEROX CO~ Lynn Sax~
#>  4 10000018 US      2018-06-19 Pull ~ A stret~ B29C/65;B29C~ Apple In~ Liane Fa~
#>  5 10000019 US      2018-06-19 Insta~ An inst~ B29C/65;B32B~ The Boei~ Mary H. ~
#>  6 10000024 US      2018-06-19 Appar~ An appa~ G06F/19;B29C~ SAMSUNG ~ In-Hyok ~
#>  7 10000033 US      2018-06-19 Washa~ Disclos~ H01R/4;B31B/~ Blueavac~ Amy Geor~
#>  8 10000036 US      2018-06-19 High ~ Boron n~ B32B/5;F41H/~ UNITED S~ Sharon E~
#>  9 10000037 US      2018-06-19 Trans~ The pur~ B32B/7;B32B/~ DEXERIAL~ Emi Yosh~
#> 10 10000039 US      2018-06-19 Multi~ A multi~ B32B/17;B32B~ Solutia ~ Yalda Fa~
#> # ... with 384,842 more rows, and 2 more variables: kind <chr>,
#> #   patentsyear <chr>
…
